{
    "repositoryIds": 1,
    "repositories": [
        {
            "id": 0,
            "author": "Mock",
            "name": "Mi Dashboard 0",
            "repository": {
                "cards": [
                    {
                        "index": 0,
                        "title": "Mock Card",
                        "task": "Mock Task",
                        "status": "To-do",
                        "metadata": {
                            "author": "Backend",
                            "time": ""
                        }
                    },
                    {
                        "index": 0,
                        "title": "Mock Card 2",
                        "task": "Mock Task",
                        "status": "In-Progress",
                        "metadata": {
                            "author": "Backend",
                            "time": ""
                        }
                    },
                    {
                        "index": 0,
                        "title": "Mock Card 3",
                        "task": "Mock Task",
                        "status": "Done",
                        "metadata": {
                            "author": "Backend",
                            "time": ""
                        }
                    }
                ]
            }
        }
    ]
}